\relax 
\@nameuse{bbl@beforestart}
\catcode `"\active 
\catcode `-\active 
\babel@aux{czech}{}
\@writefile{toc}{\contentsline {section}{\numberline {1}Úvod}{3}\protected@file@percent }
\@writefile{toc}{\contentsline {section}{\numberline {2}Architektura}{4}\protected@file@percent }
\@writefile{toc}{\contentsline {subsection}{\numberline {2.1}Popis okolí microservice}{4}\protected@file@percent }
\@writefile{lof}{\contentsline {figure}{\numberline {1}{\ignorespaces Popis okolí microservice}}{4}\protected@file@percent }
\newlabel{fig:architektura}{{1}{4}}
\@writefile{toc}{\contentsline {subsection}{\numberline {2.2}Popis architektury}{4}\protected@file@percent }
\@writefile{toc}{\contentsline {subsection}{\numberline {2.3}Logická struktura systému – rozdělení komponent}{5}\protected@file@percent }
\@writefile{toc}{\contentsline {subsection}{\numberline {2.4}Popis systémových vrstev}{5}\protected@file@percent }
\@writefile{toc}{\contentsline {subsection}{\numberline {2.5}Integrace s okolními systémy – návrh řešení integrace na technické úrovni}{5}\protected@file@percent }
\@writefile{toc}{\contentsline {subsection}{\numberline {2.6}Technologie – důvody použití}{5}\protected@file@percent }
\@writefile{toc}{\contentsline {subsection}{\numberline {2.7}HW infrastruktura a SW licence – sizing HW, licence}{6}\protected@file@percent }
\@writefile{toc}{\contentsline {subsection}{\numberline {2.8}Logické schéma HW infrastruktury (škálovatelnost...)}{6}\protected@file@percent }
\@writefile{toc}{\contentsline {section}{\numberline {3}Přihlášení}{7}\protected@file@percent }
\@writefile{lof}{\contentsline {figure}{\numberline {2}{\ignorespaces Formulář přihlášení uživatele}}{7}\protected@file@percent }
\newlabel{fig:userLogin}{{2}{7}}
\@writefile{lol}{\contentsline {lstlisting}{\numberline {1}Vyhodnocení, zda uživatel s takovým mailem existuje}{8}\protected@file@percent }
\newlabel{lst:label}{{2}{8}}
\@writefile{lol}{\contentsline {lstlisting}{\numberline {2}Návratový JSON po pokusu o přihlášení}{8}\protected@file@percent }
\@writefile{toc}{\contentsline {section}{\numberline {4}Registrace}{10}\protected@file@percent }
\@writefile{lof}{\contentsline {figure}{\numberline {3}{\ignorespaces Formulář registrace uživatele}}{10}\protected@file@percent }
\newlabel{fig:userRegistration}{{3}{10}}
\@writefile{lof}{\contentsline {figure}{\numberline {4}{\ignorespaces Validace registrace}}{11}\protected@file@percent }
\newlabel{fig:validationReg}{{4}{11}}
\@writefile{toc}{\contentsline {section}{\numberline {5}Profil uživatele}{12}\protected@file@percent }
\@writefile{lof}{\contentsline {figure}{\numberline {5}{\ignorespaces Profil uživatele}}{12}\protected@file@percent }
\newlabel{fig:profilUser}{{5}{12}}
\newlabel{lst:inputUserJSON}{{3}{13}}
\@writefile{lol}{\contentsline {lstlisting}{\numberline {3}Vstupní JSON při úpravě dat uživatele}{13}\protected@file@percent }
\@writefile{toc}{\contentsline {section}{\numberline {6}Chatbot}{14}\protected@file@percent }
\@writefile{lof}{\contentsline {figure}{\numberline {6}{\ignorespaces Chatbot}}{14}\protected@file@percent }
\newlabel{fig:chatbot0}{{6}{14}}
\@writefile{lof}{\contentsline {figure}{\numberline {7}{\ignorespaces Komunikace s Chatbotem}}{15}\protected@file@percent }
\newlabel{fig:chatbot}{{7}{15}}
\@writefile{toc}{\contentsline {section}{\numberline {7}Přehled úspor}{16}\protected@file@percent }
\@writefile{toc}{\contentsline {subsection}{\numberline {7.1}Seznam přání}{16}\protected@file@percent }
\@writefile{lof}{\contentsline {figure}{\numberline {8}{\ignorespaces Seznam přání}}{16}\protected@file@percent }
\newlabel{fig:wishList}{{8}{16}}
\@writefile{toc}{\contentsline {subsection}{\numberline {7.2}Grafy}{17}\protected@file@percent }
\@writefile{lof}{\contentsline {figure}{\numberline {9}{\ignorespaces Nabídka grafů}}{17}\protected@file@percent }
\newlabel{fig:graphs}{{9}{17}}
\@writefile{lof}{\contentsline {figure}{\numberline {10}{\ignorespaces Seznam přání - příklad}}{18}\protected@file@percent }
\newlabel{fig:monthBalance}{{10}{18}}
\@writefile{toc}{\contentsline {subsection}{\numberline {7.3}Příklad}{19}\protected@file@percent }
\@writefile{lof}{\contentsline {figure}{\numberline {11}{\ignorespaces Seznam přání - příklad}}{19}\protected@file@percent }
\newlabel{fig:wishExample}{{11}{19}}
\@writefile{lof}{\contentsline {figure}{\numberline {12}{\ignorespaces Měsíční finanční plán (graf) - příklad}}{20}\protected@file@percent }
\newlabel{fig:monthWishGraph}{{12}{20}}
\@writefile{lof}{\contentsline {figure}{\numberline {13}{\ignorespaces Měsíční finanční plán (soupis) - příklad}}{20}\protected@file@percent }
\newlabel{fig:monthWishList}{{13}{20}}
\@writefile{lof}{\contentsline {figure}{\numberline {14}{\ignorespaces Měsíční finanční plán (soupis) - příklad}}{21}\protected@file@percent }
\newlabel{fig:yearWishList}{{14}{21}}
\@writefile{lof}{\contentsline {figure}{\numberline {15}{\ignorespaces Měsíční finanční plán (graf) - příklad}}{21}\protected@file@percent }
\newlabel{fig:yearWishGraph}{{15}{21}}
\@writefile{toc}{\contentsline {section}{\numberline {8}Odstranění účtu}{23}\protected@file@percent }
\@writefile{toc}{\contentsline {section}{\numberline {9}Validace}{24}\protected@file@percent }
\newlabel{section:validation}{{9}{24}}
\@writefile{toc}{\contentsline {subsection}{\numberline {9.1}User}{24}\protected@file@percent }
\newlabel{section:userValidation}{{9.1}{24}}
\@writefile{toc}{\contentsline {subsection}{\numberline {9.2}Chatbot}{25}\protected@file@percent }
\newlabel{section:chatbotValidation}{{9.2}{25}}
\@writefile{toc}{\contentsline {section}{\numberline {10}Admin}{26}\protected@file@percent }
\newlabel{section:admin}{{10}{26}}
\@writefile{toc}{\contentsline {subsection}{\numberline {10.1}Vytvoření transakce}{26}\protected@file@percent }
\newlabel{lst:inputTransaction}{{4}{26}}
\@writefile{lol}{\contentsline {lstlisting}{\numberline {4}Vstupní JSON vytvoření transakce}{26}\protected@file@percent }
\newlabel{lst:outputTransaction}{{5}{26}}
\@writefile{lol}{\contentsline {lstlisting}{\numberline {5}Výstupní JSON vytvoření transakce}{26}\protected@file@percent }
\@writefile{toc}{\contentsline {section}{\numberline {11}Zabezpečení}{28}\protected@file@percent }
\@writefile{toc}{\contentsline {section}{\numberline {12}Usecase model}{29}\protected@file@percent }
\@writefile{lof}{\contentsline {figure}{\numberline {16}{\ignorespaces Usecase model - ŠKKH - FINANCE}}{29}\protected@file@percent }
\newlabel{fig:usecase}{{16}{29}}
\@writefile{toc}{\contentsline {section}{\numberline {13}Doménový model}{31}\protected@file@percent }
\@writefile{lof}{\contentsline {figure}{\numberline {17}{\ignorespaces Doménový model - ŠKKH - FINANCE}}{31}\protected@file@percent }
\newlabel{fig:classdiagram}{{17}{31}}
\@writefile{toc}{\contentsline {section}{\numberline {14}Požadavky}{32}\protected@file@percent }
\@writefile{toc}{\contentsline {subsection}{\numberline {14.1}Přehled funkčních požadavků}{32}\protected@file@percent }
\@writefile{toc}{\contentsline {subsection}{\numberline {14.2}Přehled nefunkčních požadavků}{32}\protected@file@percent }
\@writefile{toc}{\contentsline {section}{\numberline {15}Cenový odhad}{33}\protected@file@percent }
\newlabel{fig:prototyp}{{15}{33}}
\@writefile{toc}{\contentsline {section}{\numberline {16}Projektový plán}{34}\protected@file@percent }
\newlabel{fig:month1}{{16}{34}}
\newlabel{fig:month2}{{16}{34}}
